…
``` r
sum(tripdata$duration==0)
```

    ## [1] 431

Remove spurious data. Only duration\>0 should be included. The 100
negative entries are likely errors in entry.

``` r
tripdata[tripdata$duration==0,]
```

    ## # A tibble: 431 × 14
    ##    ride_id       ridea…¹ started_at          ended_at            start…² start…³
    ##    <chr>         <fct>   <dttm>              <dttm>              <chr>   <chr>  
    ##  1 C2E047DDF019… electr… 2022-01-18 19:25:42 2022-01-18 19:25:42 Green … TA1307…
    ##  2 8D3E8E511FEB… electr… 2022-01-21 01:05:35 2022-01-21 01:05:35 Wester… 13068  
    ##  3 A753A729011B… electr… 2022-01-09 10:39:48 2022-01-09 10:39:48 Clark … KA1504…
    ##  4 0C63D14D2612… electr… 2022-01-28 15:28:11 2022-01-28 15:28:11 Wells … TA1307…
    ##  5 4B0FC5ACEE52… electr… 2022-01-18 19:38:26 2022-01-18 19:38:26 Sheffi… TA1309…
    ##  6 6174209419E9… classi… 2022-02-17 14:20:58 2022-02-17 14:20:58 Univer… KA1503…
    ##  7 FA080339DCF1… classi… 2022-02-12 15:07:50 2022-02-12 15:07:50 Michig… TA1305…
    ##  8 2CF1A9AEEB7A… electr… 2022-02-17 09:39:01 2022-02-17 09:39:01 Despla… 15535  
    ##  9 21582FCE30A6… classi… 2022-02-16 14:32:32 2022-02-16 14:32:32 Canal … 13011  
    ## 10 CF76E9E68F30… classi… 2022-02-24 07:41:45 2022-02-24 07:41:45 Ashlan… 13224  
    ## # … with 421 more rows, 8 more variables: end_station_name <chr>,
    ## #   end_station_id <chr>, start_lat <dbl>, start_lng <dbl>, end_lat <dbl>,
    ## #   end_lng <dbl>, member_casual <fct>, duration <dbl>, and abbreviated
    ## #   variable names ¹​rideable_type, ²​start_station_name, ³​start_station_id
…
The duration greater than 24 hrs i.e. 86400 sec

``` r
table(tripdata[tripdata$duration>86400,]$rideable_type)
```

    ## 
    ##  classic_bike   docked_bike electric_bike 
    ##          3323          2037             0

``` r
tripdata[tripdata$duration>86400 & as.character(tripdata$rideable_type)=="classic_bike",c("rideable_type","duration","member_casual")]
```

    ## # A tibble: 3,323 × 3
    ##    rideable_type duration member_casual
    ##    <fct>            <dbl> <fct>        
    ##  1 classic_bike     89993 member       
    ##  2 classic_bike     89993 casual       
    ##  3 classic_bike     89995 casual       
    ##  4 classic_bike     89993 casual       
    ##  5 classic_bike     89993 casual       
    ##  6 classic_bike     89993 casual       
    ##  7 classic_bike     89996 casual       
    ##  8 classic_bike     89993 casual       
    ##  9 classic_bike     89991 casual       
    ## 10 classic_bike     89992 casual       
    ## # … with 3,313 more rows
…
